VLAN 203,VLAN 303,VLAN 700,VLAN 403,VLAN 503,VLAN 803,VLAN 900,VLAN 807,VLAN 113
172.17.109.128/26,172.17.109.192/26,10.121.80.128/26,172.17.110.128/25,172.17.111.128/25,172.17.105.0/26,10.121.82.128/26,10.1.200.0/24,10.251.139.192
172.17.109.162,172.17.109.220,10.121.80.142,172.17.110.216,172.17.111.179,172.17.105.49,10.121.82.142,10.1.200.4,10.251.139.220
172.17.109.163,172.17.109.221,10.121.80.143,172.17.110.217,172.17.111.180,172.17.105.50,10.121.82.143,10.1.200.5,10.251.139.221
172.17.109.164,172.17.109.222,10.121.80.144,172.17.110.218,172.17.111.181,172.17.105.51,10.121.82.144,10.1.200.182,10.251.139.222
172.17.109.165,172.17.109.223,10.121.80.145,172.17.110.219,172.17.111.182,172.17.105.52,10.121.82.145,10.1.200.183,10.251.139.223
172.17.109.166,172.17.109.224,10.121.80.146,172.17.110.220,172.17.111.183,172.17.105.53,10.121.82.146,10.1.200.184,10.251.139.224
172.17.109.167,172.17.109.225,10.121.80.147,172.17.110.221,172.17.111.184,172.17.105.54,10.121.82.147,10.1.200.185,10.251.139.225
172.17.109.168,172.17.109.226,10.121.80.148,172.17.110.222,172.17.111.185,172.17.105.55,10.121.82.148,10.1.200.186,10.251.139.226
172.17.109.169,172.17.109.227,10.121.80.149,172.17.110.223,172.17.111.186,172.17.105.56,10.121.82.149,10.1.200.187,10.251.139.227
172.17.109.170,172.17.109.228,10.121.80.150,172.17.110.224,172.17.111.187,172.17.105.57,10.121.82.150,10.1.200.199,10.251.139.228
172.17.109.171,172.17.109.229,10.121.80.151,172.17.110.225,172.17.111.188,172.17.105.58,10.121.82.151,10.1.200.200,10.251.139.229
172.17.109.172,172.17.109.230,10.121.80.152,172.17.110.226,172.17.111.189,172.17.105.59,10.121.82.152,10.1.200.201,10.251.139.230
172.17.109.173,172.17.109.231,10.121.80.153,172.17.110.227,172.17.111.190,172.17.105.60,10.121.82.153,10.1.200.202,10.251.139.231
172.17.109.174,172.17.109.232,10.121.80.154,172.17.110.228,172.17.111.191,172.17.105.61,10.121.82.154,10.1.200.203,10.251.139.232
172.17.109.175,172.17.109.233,10.121.80.155,172.17.110.229,172.17.111.192,172.17.105.62,10.121.82.155,10.1.200.204,10.251.139.233
172.17.109.176,172.17.109.234,10.121.80.156,172.17.110.230,172.17.111.193,,10.121.82.156,10.1.200.205,10.251.139.234
172.17.109.177,172.17.109.235,10.121.80.157,172.17.110.231,172.17.111.194,,10.121.82.157,10.1.200.206,10.251.139.235
172.17.109.178,172.17.109.236,10.121.80.158,172.17.110.232,172.17.111.195,,10.121.82.158,10.1.200.207,10.251.139.236
172.17.109.179,172.17.109.237,10.121.80.159,172.17.110.233,172.17.111.196,,10.121.82.159,10.1.200.208,10.251.139.237
172.17.109.180,172.17.109.238,10.121.80.160,172.17.110.234,172.17.111.197,,10.121.82.160,10.1.200.209,10.251.139.238
172.17.109.181,172.17.109.239,10.121.80.161,172.17.110.235,172.17.111.198,,10.121.82.161,10.1.200.210,10.251.139.239
172.17.109.182,172.17.109.240,10.121.80.162,172.17.110.236,172.17.111.199,,10.121.82.162,10.1.200.211,10.251.139.240
172.17.109.183,172.17.109.241,10.121.80.163,172.17.110.237,172.17.111.200,,10.121.82.163,10.1.200.212,10.251.139.241
172.17.109.184,172.17.109.242,10.121.80.164,172.17.110.238,172.17.111.201,,10.121.82.164,10.1.200.213,10.251.139.242
172.17.109.185,172.17.109.243,10.121.80.165,172.17.110.239,172.17.111.202,,10.121.82.165,10.1.200.214,10.251.139.243
172.17.109.186,172.17.109.244,10.121.80.166,172.17.110.240,172.17.111.203,,10.121.82.166,10.1.200.215,10.251.139.244
172.17.109.187,172.17.109.245,10.121.80.167,172.17.110.241,172.17.111.204,,10.121.82.167,10.1.200.216,10.251.139.245
172.17.109.188,172.17.109.246,10.121.80.168,172.17.110.242,172.17.111.205,,10.121.82.168,10.1.200.217,10.251.139.246
172.17.109.189,172.17.109.247,10.121.80.169,172.17.110.243,172.17.111.206,,10.121.82.169,10.1.200.218,10.251.139.247
172.17.109.190,172.17.109.248,10.121.80.170,172.17.110.244,172.17.111.207,,10.121.82.170,10.1.200.219,10.251.139.248
,172.17.109.249,10.121.80.171,172.17.110.245,172.17.111.208,,10.121.82.171,10.1.200.220,10.251.139.249
,172.17.109.250,10.121.80.172,172.17.110.246,172.17.111.209,,10.121.82.172,10.1.200.221,10.251.139.250
,172.17.109.251,10.121.80.173,172.17.110.247,172.17.111.210,,10.121.82.173,10.1.200.222,10.251.139.251
,172.17.109.252,10.121.80.174,172.17.110.248,172.17.111.211,,10.121.82.174,10.1.200.223,10.251.139.252
,172.17.109.253,10.121.80.175,172.17.110.249,172.17.111.212,,10.121.82.175,10.1.200.224,10.251.139.253
,172.17.109.254,10.121.80.176,172.17.110.250,172.17.111.213,,10.121.82.176,10.1.200.225,10.251.139.254
,,10.121.80.177,172.17.110.251,172.17.111.214,,10.121.82.177,10.1.200.226,
,,10.121.80.178,172.17.110.252,172.17.111.215,,10.121.82.178,10.1.200.227,
,,10.121.80.179,172.17.110.253,172.17.111.216,,10.121.82.179,10.1.200.228,
,,10.121.80.180,172.17.110.254,172.17.111.217,,10.121.82.180,10.1.200.229,
,,10.121.80.181,,172.17.111.218,,10.121.82.181,10.1.200.230,
,,10.121.80.182,,172.17.111.219,,10.121.82.182,10.1.200.231,
,,10.121.80.183,,172.17.111.220,,10.121.82.183,10.1.200.232,
,,10.121.80.184,,172.17.111.221,,10.121.82.184,10.1.200.233,
,,10.121.80.185,,172.17.111.222,,10.121.82.185,10.1.200.234,
,,10.121.80.186,,172.17.111.223,,10.121.82.186,10.1.200.235,
,,10.121.80.187,,172.17.111.224,,10.121.82.187,10.1.200.236,
,,10.121.80.188,,172.17.111.225,,10.121.82.188,10.1.200.237,
,,10.121.80.189,,172.17.111.226,,10.121.82.189,10.1.200.238,
,,10.121.80.190,,172.17.111.227,,10.121.82.190,10.1.200.239,
,,,,172.17.111.228,,,,
,,,,172.17.111.229,,,,
,,,,172.17.111.230,,,,
,,,,172.17.111.231,,,,
,,,,172.17.111.232,,,,
,,,,172.17.111.233,,,,
,,,,172.17.111.234,,,,
,,,,172.17.111.235,,,,
,,,,172.17.111.236,,,,
,,,,172.17.111.237,,,,
,,,,172.17.111.238,,,,
,,,,172.17.111.239,,,,
,,,,172.17.111.240,,,,
,,,,172.17.111.241,,,,
,,,,172.17.111.242,,,,
,,,,172.17.111.243,,,,
,,,,172.17.111.244,,,,
,,,,172.17.111.245,,,,
,,,,172.17.111.246,,,,
,,,,172.17.111.247,,,,
,,,,172.17.111.248,,,,
,,,,172.17.111.249,,,,
,,,,172.17.111.250,,,,
,,,,172.17.111.251,,,,
,,,,172.17.111.252,,,,
,,,,172.17.111.253,,,,
,,,,172.17.111.254,,,,
