Name,SID,VLAN,IP,Subnet,GW
osel501715,XL0,203,10.120.64.9,255.255.255.192,10.120.64.1
osel501716,QCF,203,10.120.64.10,255.255.255.192,10.120.64.1
osel501717,QRF,203,10.120.64.11,255.255.255.192,10.120.64.1
osel501718,QRR,203,10.120.64.12,255.255.255.192,10.120.64.1
osel501720,QCR,203,10.120.64.13,255.255.255.192,10.120.64.1
osel501722,XSC,203,10.120.64.14,255.255.255.192,10.120.64.1
osel501723,DRC,203,10.120.64.15,255.255.255.192,10.120.64.1
osel501724,QRC,203,10.120.64.16,255.255.255.192,10.120.64.1
osel501725,DSC,203,10.120.64.17,255.255.255.192,10.120.64.1
osel501726,QSC,203,10.120.64.18,255.255.255.192,10.120.64.1
osel501727,XPC,203,10.120.64.19,255.255.255.192,10.120.64.1
osel501728,DPC,203,10.120.64.20,255.255.255.192,10.120.64.1
osel501715-pvt,XL0,303,10.120.64.73,255.255.255.192,10.120.64.65
osel501716-pvt,QCF,303,10.120.64.74,255.255.255.192,10.120.64.65
osel501717-pvt,QRF,303,10.120.64.75,255.255.255.192,10.120.64.65
osel501718-pvt,QRR,303,10.120.64.76,255.255.255.192,10.120.64.65
osel501720-pvt,QCR,303,10.120.64.77,255.255.255.192,10.120.64.65
osel501722-pvt,XSC,303,10.120.64.78,255.255.255.192,10.120.64.65
osel501723-pvt,DRC,303,10.120.64.79,255.255.255.192,10.120.64.65
osel501724-pvt,QRC,303,10.120.64.80,255.255.255.192,10.120.64.65
osel501725-pvt,DSC,303,10.120.64.81,255.255.255.192,10.120.64.65
osel501726-pvt,QSC,303,10.120.64.82,255.255.255.192,10.120.64.65
osel501727-pvt,XPC,303,10.120.64.83,255.255.255.192,10.120.64.65
osel501728-pvt,DPC,303,10.120.64.84,255.255.255.192,10.120.64.65
osel501715-data,XL0,403,10.120.65.31,255.255.255.0,10.120.65.1
osel501716-data,QCF,403,10.120.65.32,255.255.255.0,10.120.65.1
osel501717-data,QRF,403,10.120.65.33,255.255.255.0,10.120.65.1
osel501718-data,QRR,403,10.120.65.34,255.255.255.0,10.120.65.1
osel501720-data,QCR,403,10.120.65.35,255.255.255.0,10.120.65.1
osel501722-data,XSC,403,10.120.65.36,255.255.255.0,10.120.65.1
osel501723-data,DRC,403,10.120.65.37,255.255.255.0,10.120.65.1
osel501724-data,QRC,403,10.120.65.38,255.255.255.0,10.120.65.1
osel501725-data,DSC,403,10.120.65.39,255.255.255.0,10.120.65.1
osel501726-data,QSC,403,10.120.65.40,255.255.255.0,10.120.65.1
osel501727-data,XPC,403,10.120.65.41,255.255.255.0,10.120.65.1
osel501728-data,DPC,403,10.120.65.42,255.255.255.0,10.120.65.1
osel501715-log,XL0,503,10.120.66.14,255.255.255.128,10.120.66.1
osel501716-log,QCF,503,10.120.66.15,255.255.255.128,10.120.66.1
osel501717-log,QRF,503,10.120.66.16,255.255.255.128,10.120.66.1
osel501718-log,QRR,503,10.120.66.17,255.255.255.128,10.120.66.1
osel501720-log,QCR,503,10.120.66.18,255.255.255.128,10.120.66.1
osel501722-log,XSC,503,10.120.66.19,255.255.255.128,10.120.66.1
osel501723-log,DRC,503,10.120.66.20,255.255.255.128,10.120.66.1
osel501724-log,QRC,503,10.120.66.21,255.255.255.128,10.120.66.1
osel501725-log,DSC,503,10.120.66.22,255.255.255.128,10.120.66.1
osel501726-log,QSC,503,10.120.66.23,255.255.255.128,10.120.66.1
osel501727-log,XPC,503,10.120.66.24,255.255.255.128,10.120.66.1
osel501728-log,DPC,503,10.120.66.25,255.255.255.128,10.120.66.1
osel501715-bk,XL0,803,10.120.64.205,255.255.255.192,10.120.64.193
osel501716-bk,QCF,803,10.120.64.206,255.255.255.192,10.120.64.193
osel501717-bk,QRF,803,10.120.64.207,255.255.255.192,10.120.64.193
osel501718-bk,QRR,803,10.120.64.208,255.255.255.192,10.120.64.193
osel501720-bk,QCR,803,10.120.64.209,255.255.255.192,10.120.64.193
osel501722-bk,XSC,803,10.120.64.210,255.255.255.192,10.120.64.193
osel501723-bk,DRC,803,10.120.64.211,255.255.255.192,10.120.64.193
osel501724-bk,QRC,803,10.120.64.212,255.255.255.192,10.120.64.193
osel501725-bk,DSC,803,10.120.64.213,255.255.255.192,10.120.64.193
osel501726-bk,QSC,803,10.120.64.214,255.255.255.192,10.120.64.193
osel501727-bk,XPC,803,10.120.64.215,255.255.255.192,10.120.64.193
osel501728-bk,DPC,803,10.120.64.216,255.255.255.192,10.120.64.193
