{
  "all": {
    "hosts": [
      "osel501703_42049ca2-b7b0-cc1a-5b88-8ef93569e613", 
      "osel501705_4204e017-8254-b98e-1e7d-0ce00ecb4099"
    ]
  }, 
  "guests": {
    "hosts": [
      "osel501703_42049ca2-b7b0-cc1a-5b88-8ef93569e613", 
      "osel501705_4204e017-8254-b98e-1e7d-0ce00ecb4099"
    ]
  }, 
  "sles12_64Guest": {
    "hosts": [
      "osel501703_42049ca2-b7b0-cc1a-5b88-8ef93569e613", 
      "osel501705_4204e017-8254-b98e-1e7d-0ce00ecb4099"
    ]
  }, 
  "_meta": {
    "hostvars": {
      "osel501703_42049ca2-b7b0-cc1a-5b88-8ef93569e613": {
        "resourcepool": {
          "_moId": "resgroup-97", 
          "name": "Resources"
        }, 
        "alarmactionsenabled": true, 
        "configissue": [], 
        "tag": [], 
        "datastore": [
          {
            "_moId": "datastore-72", 
            "name": "DS1"
          }
        ], 
        "triggeredalarmstate": [], 
        "layout": {
          "disk": [], 
          "swapfile": null, 
          "dynamictype": null, 
          "dynamicproperty": [], 
          "configfile": [], 
          "snapshot": [], 
          "logfile": []
        }, 
        "network": [], 
        "effectiverole": [
          -1
        ], 
        "storage": {
          "dynamictype": null, 
          "timestamp": {}, 
          "dynamicproperty": [], 
          "perdatastoreusage": []
        }, 
        "ansible_ssh_host": "192.168.20.136", 
        "ansible_uuid": "9a5d584c-fce5-47d8-a761-8413c8a8319c", 
        "layoutex": {
          "dynamictype": null, 
          "timestamp": {}, 
          "dynamicproperty": [], 
          "snapshot": [], 
          "file": [], 
          "disk": []
        }, 
        "config": {
          "alternateguestname": "", 
          "firmware": "bios", 
          "instanceuuid": "500496d4-4ca0-38b5-1b10-521e8fd30c64", 
          "cpuaffinity": null, 
          "repconfig": null, 
          "npivdesirednodewwns": null, 
          "memoryhotaddenabled": true, 
          "nestedhvenabled": false, 
          "hardware": {}, 
          "vappconfig": null, 
          "tools": {}, 
          "migrateencryption": null, 
          "guestfullname": "SUSE Linux Enterprise 12 (64-bit)", 
          "changeversion": "2017-04-18T20:00:37.542967Z", 
          "npivportworldwidename": [], 
          "uuid": "42049ca2-b7b0-cc1a-5b88-8ef93569e613", 
          "messagebustunnelenabled": null, 
          "consolepreferences": null, 
          "forkconfiginfo": null, 
          "cpuhotremoveenabled": false, 
          "vpmcenabled": false, 
          "npivonnonrdmdisks": null, 
          "npivworldwidenametype": "", 
          "swapstorageobjectid": null, 
          "managedby": null, 
          "version": "vmx-10", 
          "locationid": "564deed6-1ea5-c0ba-ac2e-d4ce887d1183", 
          "maxmksconnections": 40, 
          "template": false, 
          "guestid": "sles12_64Guest", 
          "bootoptions": {}, 
          "cpufeaturemask": [], 
          "hotplugmemorylimit": 1035264, 
          "npivnodeworldwidename": [], 
          "cpuallocation": {}, 
          "files": {}, 
          "memoryreservationlockedtomax": true, 
          "scheduledhardwareupgradeinfo": {}, 
          "dynamictype": null, 
          "dynamicproperty": [], 
          "initialoverhead": {}, 
          "datastoreurl": [], 
          "memoryaffinity": null, 
          "vmxconfigchecksum": null, 
          "latencysensitivity": {}, 
          "changetrackingenabled": false, 
          "npivtemporarydisabled": true, 
          "memoryallocation": {}, 
          "ftinfo": null, 
          "guestautolockenabled": false, 
          "annotation": "", 
          "defaultpowerops": {}, 
          "vassertsenabled": false, 
          "hotplugmemoryincrementsize": 128, 
          "keyid": null, 
          "name": "osel501703", 
          "npivdesiredportwwns": null, 
          "vflashcachereservation": 0, 
          "extraconfig": [], 
          "networkshaper": null, 
          "modified": {}, 
          "vmstorageobjectid": null, 
          "swapplacement": "inherit", 
          "flags": {}, 
          "guestintegrityinfo": null, 
          "cpuhotaddenabled": true
        }, 
        "customvalue": [], 
        "permission": [], 
        "parentvapp": null, 
        "recenttask": [], 
        "availablefield": [], 
        "overallstatus": "green", 
        "ansible_host": "192.168.20.136", 
        "guest": {
          "hostname": "osel501703", 
          "toolsversionstatus": "guestToolsUnmanaged", 
          "generationinfo": [], 
          "toolsversion": "2147483647", 
          "guestfullname": "SUSE Linux Enterprise 12 (64-bit)", 
          "disk": [], 
          "appstate": "none", 
          "guestoperationsready": true, 
          "toolsrunningstatus": "guestToolsRunning", 
          "guestfamily": "linuxGuest", 
          "toolsinstalltype": null, 
          "guestid": "sles12_64Guest", 
          "net": [], 
          "appheartbeatstatus": "appStatusGray", 
          "guestkernelcrashed": null, 
          "dynamictype": null, 
          "screen": {}, 
          "dynamicproperty": [], 
          "interactiveguestoperationsready": false, 
          "powerpolicy": null, 
          "ipaddress": "192.168.20.136", 
          "gueststate": "running", 
          "toolsversionstatus2": "guestToolsUnmanaged", 
          "toolsstatus": "toolsOk", 
          "ipstack": [], 
          "gueststatechangesupported": null, 
          "toolsupdatestatus": null
        }, 
        "guestheartbeatstatus": "green", 
        "name": "osel501703", 
        "rootsnapshot": [], 
        "configstatus": "green", 
        "value": [], 
        "summary": {
          "customvalue": [], 
          "guest": {}, 
          "dynamictype": null, 
          "overallstatus": "green", 
          "dynamicproperty": [], 
          "storage": {}, 
          "vm": {}, 
          "quickstats": {}, 
          "runtime": {}, 
          "config": {}
        }, 
        "capability": {
          "quiescedsnapshotssupported": true, 
          "cpufeaturemasksupported": true, 
          "consolepreferencessupported": false, 
          "vpmcsupported": true, 
          "featurerequirementsupported": true, 
          "snapshotconfigsupported": true, 
          "bootoptionssupported": true, 
          "poweredonmonitortypechangesupported": true, 
          "vmnpivwwnupdatesupported": true, 
          "changetrackingsupported": true, 
          "nestedhvsupported": true, 
          "settingdisplaytopologymodessupported": false, 
          "reverttosnapshotsupported": true, 
          "settingvideoramsizesupported": true, 
          "settingscreenresolutionsupported": false, 
          "virtualmmuusagesupported": true, 
          "sesparsedisksupported": true, 
          "s1acpimanagementsupported": true, 
          "poweredoffsnapshotssupported": true, 
          "disksharessupported": true, 
          "dynamictype": null, 
          "vmnpivwwndisablesupported": true, 
          "disablesnapshotssupported": false, 
          "canconnectusbdevices": null, 
          "swapplacementsupported": true, 
          "bootretryoptionssupported": true, 
          "memoryreservationlocksupported": true, 
          "toolsrebootpredictsupported": null, 
          "dynamicproperty": [], 
          "recordreplaysupported": true, 
          "settingdisplaytopologysupported": false, 
          "locksnapshotssupported": true, 
          "npivwwnonnonrdmvmsupported": true, 
          "guestautolocksupported": true, 
          "toolsautoupdatesupported": false, 
          "multiplecorespersocketsupported": true, 
          "securebootsupported": null, 
          "multiplesnapshotssupported": true, 
          "snapshotoperationssupported": true, 
          "toolssynctimesupported": true, 
          "hostbasedreplicationsupported": true, 
          "messagebussupported": false, 
          "vmnpivwwnsupported": true, 
          "memorysnapshotssupported": true, 
          "vmfsnativesnapshotsupported": false
        }, 
        "snapshot": null, 
        "runtime": {
          "powerstate": "poweredOn", 
          "paused": null, 
          "featuremask": [], 
          "onlinestandby": false, 
          "snapshotinbackground": null, 
          "cleanpoweroff": null, 
          "featurerequirement": [], 
          "question": null, 
          "boottime": {}, 
          "maxmemoryusage": 393216, 
          "offlinefeaturerequirement": [], 
          "minrequiredevcmodekey": null, 
          "suspendinterval": 0, 
          "dynamicproperty": [], 
          "quiescedforkparent": null, 
          "dynamictype": null, 
          "memoryoverhead": 2747445248, 
          "needsecondaryreason": null, 
          "vflashcacheallocation": 0, 
          "host": {
            "_moId": "host-35", 
            "name": "hovsh0151sdc-03.lab.wal-mart.com"
          }, 
          "maxcpuusage": 28800, 
          "device": [], 
          "suspendtime": null, 
          "recordreplaystate": "inactive", 
          "toolsinstallermounted": false, 
          "consolidationneeded": false, 
          "connectionstate": "connected", 
          "dasvmprotection": null, 
          "faulttolerancestate": "notConfigured", 
          "nummksconnections": 0
        }
      }, 
      "osel501705_4204e017-8254-b98e-1e7d-0ce00ecb4099": {
        "resourcepool": {
          "_moId": "resgroup-97", 
          "name": "Resources"
        }, 
        "alarmactionsenabled": true, 
        "configissue": [], 
        "tag": [], 
        "datastore": [
          {
            "_moId": "datastore-72", 
            "name": "DS1"
          }
        ], 
        "triggeredalarmstate": [], 
        "layout": {
          "disk": [], 
          "swapfile": null, 
          "dynamictype": null, 
          "dynamicproperty": [], 
          "configfile": [], 
          "snapshot": [], 
          "logfile": []
        }, 
        "network": [], 
        "effectiverole": [
          -1
        ], 
        "storage": {
          "dynamictype": null, 
          "timestamp": {}, 
          "dynamicproperty": [], 
          "perdatastoreusage": []
        }, 
        "ansible_ssh_host": "192.168.20.138", 
        "ansible_uuid": "5561ba77-74d7-40f7-81ee-9db15c813b6a", 
        "layoutex": {
          "dynamictype": null, 
          "timestamp": {}, 
          "dynamicproperty": [], 
          "snapshot": [], 
          "file": [], 
          "disk": []
        }, 
        "config": {
          "alternateguestname": "", 
          "firmware": "bios", 
          "instanceuuid": "50046fad-8fc4-85d3-9839-36a2a9bebfd1", 
          "cpuaffinity": null, 
          "repconfig": null, 
          "npivdesirednodewwns": null, 
          "memoryhotaddenabled": true, 
          "nestedhvenabled": false, 
          "hardware": {}, 
          "vappconfig": null, 
          "tools": {}, 
          "migrateencryption": null, 
          "guestfullname": "SUSE Linux Enterprise 12 (64-bit)", 
          "changeversion": "2017-04-18T20:00:34.747311Z", 
          "npivportworldwidename": [], 
          "uuid": "4204e017-8254-b98e-1e7d-0ce00ecb4099", 
          "messagebustunnelenabled": null, 
          "consolepreferences": null, 
          "forkconfiginfo": null, 
          "cpuhotremoveenabled": false, 
          "vpmcenabled": false, 
          "npivonnonrdmdisks": null, 
          "npivworldwidenametype": "", 
          "swapstorageobjectid": null, 
          "managedby": null, 
          "version": "vmx-10", 
          "locationid": "564dc0ed-30dd-067f-a417-df145a643fdc", 
          "maxmksconnections": 40, 
          "template": false, 
          "guestid": "sles12_64Guest", 
          "bootoptions": {}, 
          "cpufeaturemask": [], 
          "hotplugmemorylimit": 1035264, 
          "npivnodeworldwidename": [], 
          "cpuallocation": {}, 
          "files": {}, 
          "memoryreservationlockedtomax": true, 
          "scheduledhardwareupgradeinfo": {}, 
          "dynamictype": null, 
          "dynamicproperty": [], 
          "initialoverhead": {}, 
          "datastoreurl": [], 
          "memoryaffinity": null, 
          "vmxconfigchecksum": null, 
          "latencysensitivity": {}, 
          "changetrackingenabled": false, 
          "npivtemporarydisabled": true, 
          "memoryallocation": {}, 
          "ftinfo": null, 
          "guestautolockenabled": false, 
          "annotation": "", 
          "defaultpowerops": {}, 
          "vassertsenabled": false, 
          "hotplugmemoryincrementsize": 128, 
          "keyid": null, 
          "name": "osel501705", 
          "npivdesiredportwwns": null, 
          "vflashcachereservation": 0, 
          "extraconfig": [], 
          "networkshaper": null, 
          "modified": {}, 
          "vmstorageobjectid": null, 
          "swapplacement": "inherit", 
          "flags": {}, 
          "guestintegrityinfo": null, 
          "cpuhotaddenabled": true
        }, 
        "customvalue": [], 
        "permission": [], 
        "parentvapp": null, 
        "recenttask": [], 
        "availablefield": [], 
        "overallstatus": "green", 
        "ansible_host": "192.168.20.138", 
        "guest": {
          "hostname": "osel501705", 
          "toolsversionstatus": "guestToolsUnmanaged", 
          "generationinfo": [], 
          "toolsversion": "2147483647", 
          "guestfullname": "SUSE Linux Enterprise 12 (64-bit)", 
          "disk": [], 
          "appstate": "none", 
          "guestoperationsready": true, 
          "toolsrunningstatus": "guestToolsRunning", 
          "guestfamily": "linuxGuest", 
          "toolsinstalltype": null, 
          "guestid": "sles12_64Guest", 
          "net": [], 
          "appheartbeatstatus": "appStatusGray", 
          "guestkernelcrashed": null, 
          "dynamictype": null, 
          "screen": {}, 
          "dynamicproperty": [], 
          "interactiveguestoperationsready": false, 
          "powerpolicy": null, 
          "ipaddress": "192.168.20.138", 
          "gueststate": "running", 
          "toolsversionstatus2": "guestToolsUnmanaged", 
          "toolsstatus": "toolsOk", 
          "ipstack": [], 
          "gueststatechangesupported": null, 
          "toolsupdatestatus": null
        }, 
        "guestheartbeatstatus": "green", 
        "name": "osel501705", 
        "rootsnapshot": [], 
        "configstatus": "green", 
        "value": [], 
        "summary": {
          "customvalue": [], 
          "guest": {}, 
          "dynamictype": null, 
          "overallstatus": "green", 
          "dynamicproperty": [], 
          "storage": {}, 
          "vm": {}, 
          "quickstats": {}, 
          "runtime": {}, 
          "config": {}
        }, 
        "capability": {
          "quiescedsnapshotssupported": true, 
          "cpufeaturemasksupported": true, 
          "consolepreferencessupported": false, 
          "vpmcsupported": true, 
          "featurerequirementsupported": true, 
          "snapshotconfigsupported": true, 
          "bootoptionssupported": true, 
          "poweredonmonitortypechangesupported": true, 
          "vmnpivwwnupdatesupported": true, 
          "changetrackingsupported": true, 
          "nestedhvsupported": true, 
          "settingdisplaytopologymodessupported": false, 
          "reverttosnapshotsupported": true, 
          "settingvideoramsizesupported": true, 
          "settingscreenresolutionsupported": false, 
          "virtualmmuusagesupported": true, 
          "sesparsedisksupported": true, 
          "s1acpimanagementsupported": true, 
          "poweredoffsnapshotssupported": true, 
          "disksharessupported": true, 
          "dynamictype": null, 
          "vmnpivwwndisablesupported": true, 
          "disablesnapshotssupported": false, 
          "canconnectusbdevices": null, 
          "swapplacementsupported": true, 
          "bootretryoptionssupported": true, 
          "memoryreservationlocksupported": true, 
          "toolsrebootpredictsupported": null, 
          "dynamicproperty": [], 
          "recordreplaysupported": true, 
          "settingdisplaytopologysupported": false, 
          "locksnapshotssupported": true, 
          "npivwwnonnonrdmvmsupported": true, 
          "guestautolocksupported": true, 
          "toolsautoupdatesupported": false, 
          "multiplecorespersocketsupported": true, 
          "securebootsupported": null, 
          "multiplesnapshotssupported": true, 
          "snapshotoperationssupported": true, 
          "toolssynctimesupported": true, 
          "hostbasedreplicationsupported": true, 
          "messagebussupported": false, 
          "vmnpivwwnsupported": true, 
          "memorysnapshotssupported": true, 
          "vmfsnativesnapshotsupported": false
        }, 
        "snapshot": null, 
        "runtime": {
          "powerstate": "poweredOn", 
          "paused": null, 
          "featuremask": [], 
          "onlinestandby": false, 
          "snapshotinbackground": null, 
          "cleanpoweroff": null, 
          "featurerequirement": [], 
          "question": null, 
          "boottime": {}, 
          "maxmemoryusage": 393216, 
          "offlinefeaturerequirement": [], 
          "minrequiredevcmodekey": null, 
          "suspendinterval": 0, 
          "dynamicproperty": [], 
          "quiescedforkparent": null, 
          "dynamictype": null, 
          "memoryoverhead": 2747445248, 
          "needsecondaryreason": null, 
          "vflashcacheallocation": 0, 
          "host": {
            "_moId": "host-35", 
            "name": "hovsh0151sdc-03.lab.wal-mart.com"
          }, 
          "maxcpuusage": 28800, 
          "device": [], 
          "suspendtime": null, 
          "recordreplaystate": "inactive", 
          "toolsinstallermounted": false, 
          "consolidationneeded": false, 
          "connectionstate": "connected", 
          "dasvmprotection": null, 
          "faulttolerancestate": "notConfigured", 
          "nummksconnections": 0
        }
      }
    }
  }
}
